["Actually​ ​we​ ​have​ ​access​ ​to​ ​5​ ​servers.​ ​For​ ​every​ ​server​ ​you​ ​must​ ​indicate​ ​the​ ​user​ ​and​ ​the​ ​host, \r\nthe​ ​command​ ​line​ ​to​ ​access​ ​the​ ​file​ ​is​ ​not​ ​update.​ ​Life​ ​sucks.","----------------Page (0) Break----------------"]
["Actually​ ​we​ ​have​ ​access​ ​to​ ​5​ ​servers.​ ​For​ ​every​ ​server​ ​you​ ​must​ ​indicate​ ​the​ ​user​ ​and​ ​the​ ​host, \r\nthe​ ​command​ ​line​ ​to​ ​access​ ​the​ ​file​ ​is​ ​not​ ​update.​ ​Life​ ​sucks.","----------------Page (0) Break----------------"]
["Actually​ ​we​ ​have​ ​access​ ​to​ ​5​ ​servers.​ ​For​ ​every​ ​server​ ​you​ ​must​ ​indicate​ ​the​ ​user​ ​and​ ​the​ ​host, \r\nthe​ ​command​ ​line​ ​to​ ​access​ ​the​ ​file​ ​is​ ​not​ ​update.​ ​Life​ ​sucks.","----------------Page (0) Break----------------"]
["Actually​ ​we​ ​have​ ​access​ ​to​ ​5​ ​servers.​ ​For​ ​every​ ​server​ ​you​ ​must​ ​indicate​ ​the​ ​user​ ​and​ ​the​ ​host, \r\nthe​ ​command​ ​line​ ​to​ ​access​ ​the​ ​file​ ​is​ ​not​ ​update.​ ​Life​ ​sucks.","----------------Page (0) Break----------------"]
["Actually​ ​we​ ​have​ ​access​ ​to​ ​5​ ​servers.​ ​For​ ​every​ ​server​ ​you​ ​must​ ​indicate​ ​the​ ​user​ ​and​ ​the​ ​host, \r\nthe​ ​command​ ​line​ ​to​ ​access​ ​the​ ​file​ ​is​ ​not​ ​update.​ ​Life​ ​sucks.","----------------Page (0) Break----------------"]
["Actually​ ​we​ ​have​ ​access​ ​to​ ​5​ ​servers.​ ​For​ ​every​ ​server​ ​you​ ​must​ ​indicate​ ​the​ ​user​ ​and​ ​the​ ​host, \r\nthe​ ​command​ ​line​ ​to​ ​access​ ​the​ ​file​ ​is​ ​not​ ​update.​ ​Life​ ​sucks.","----------------Page (0) Break----------------"]